<?xml version="1.0" encoding="UTF-8"?>
<session version="1.0">
<refactoring comment="Delete resource &apos;oc-install-ide-cours&apos;" deleteContents="false" description="Delete resource &apos;oc-install-ide-cours&apos;" element1="/oc-install-ide-cours" flags="7" id="org.eclipse.ltk.core.refactoring.delete.resources" resources="1" stamp="1625555200058"/>
</session>